{
  "title": "Audience",
  "widgets": [
    {
      "visualization": "cube_analytics_line_chart",
      "title": "Audience",
      "gridAttributes": {
        "width": 3,
        "height": 3
      }
    }
  ]
}